{
  "docs": [
           {
           "_id": "597845e579ff578a9937d4d5",
           "createdBy": {
           "_id": "595732e31c132c0c45e55c60",
           "username": "aaa",
           "__v": 185,
           "bio": "",
           "displayName": "Aaa",
           "gender": "",
           "profileName": "Aaa",
           "website": "",
           "bookMarks": [],
           "createdAt": "2017-07-01T05:28:03.318Z",
           "followers": [
                         "595732e31c132c0c45e55c60",
                         "597ed62e7f90d20459055f3c",
                         "595732e51c132c0c45e55c61"
                         ],
           "following": [
                         "595732e51c132c0c45e55c61",
                         "597ed62e7f90d20459055f3c"
                         ]
           },
           "__v": 0,
           "comments": [
                        {
                        "_id": "597845e579ff578a9937d4d6",
                        "content": "Aaa",
                        "createdBy": {
                        "_id": "595732e31c132c0c45e55c60",
                        "username": "aaa",
                        "__v": 185,
                        "bio": "",
                        "displayName": "Aaa",
                        "gender": "",
                        "profileName": "Aaa",
                        "website": "",
                        "bookMarks": [],
                        "createdAt": "2017-07-01T05:28:03.318Z",
                        "followers": [
                                      "595732e31c132c0c45e55c60",
                                      "597ed62e7f90d20459055f3c",
                                      "595732e51c132c0c45e55c61"
                                      ],
                        "following": [
                                      "595732e51c132c0c45e55c61",
                                      "597ed62e7f90d20459055f3c"
                                      ]
                        },
                        "__v": 0,
                        "createdAt": "2017-07-26T07:33:57.271Z",
                        "likedUsers": [],
                        "isLiked": false,
                        "id": "597845e579ff578a9937d4d6"
                        }
                        ],
           "likedUsers": [],
           "createdAt": "2017-07-26T07:33:57.268Z",
           "multiparts": [
                          "0.9433962264150944_14512641501054419346.png"
                          ],
           "isLiked": false,
           "id": "597845e579ff578a9937d4d5"
           },
           {
           "_id": "59784285f186447d155dc2a9",
           "createdBy": {
           "_id": "595732e31c132c0c45e55c60",
           "username": "aaa",
           "__v": 185,
           "bio": "",
           "displayName": "Aaa",
           "gender": "",
           "profileName": "Aaa",
           "website": "",
           "bookMarks": [],
           "createdAt": "2017-07-01T05:28:03.318Z",
           "followers": [
                         "595732e31c132c0c45e55c60",
                         "597ed62e7f90d20459055f3c",
                         "595732e51c132c0c45e55c61"
                         ],
           "following": [
                         "595732e51c132c0c45e55c61",
                         "597ed62e7f90d20459055f3c"
                         ]
           },
           "__v": 0,
           "comments": [
                        {
                        "_id": "59784285f186447d155dc2aa",
                        "content": "B",
                        "createdBy": {
                        "_id": "595732e31c132c0c45e55c60",
                        "username": "aaa",
                        "__v": 185,
                        "bio": "",
                        "displayName": "Aaa",
                        "gender": "",
                        "profileName": "Aaa",
                        "website": "",
                        "bookMarks": [],
                        "createdAt": "2017-07-01T05:28:03.318Z",
                        "followers": [
                                      "595732e31c132c0c45e55c60",
                                      "597ed62e7f90d20459055f3c",
                                      "595732e51c132c0c45e55c61"
                                      ],
                        "following": [
                                      "595732e51c132c0c45e55c61",
                                      "597ed62e7f90d20459055f3c"
                                      ]
                        },
                        "__v": 0,
                        "createdAt": "2017-07-26T07:19:33.459Z",
                        "likedUsers": [],
                        "isLiked": false,
                        "id": "59784285f186447d155dc2aa"
                        }
                        ],
           "likedUsers": [],
           "createdAt": "2017-07-26T07:19:33.459Z",
           "multiparts": [
                          "1.05875_14321831501053573216.png"
                          ],
           "isLiked": false,
           "id": "59784285f186447d155dc2a9"
           },
           {
           "_id": "5978427ff186447d155dc2a7",
           "createdBy": {
           "_id": "595732e31c132c0c45e55c60",
           "username": "aaa",
           "__v": 185,
           "bio": "",
           "displayName": "Aaa",
           "gender": "",
           "profileName": "Aaa",
           "website": "",
           "bookMarks": [],
           "createdAt": "2017-07-01T05:28:03.318Z",
           "followers": [
                         "595732e31c132c0c45e55c60",
                         "597ed62e7f90d20459055f3c",
                         "595732e51c132c0c45e55c61"
                         ],
           "following": [
                         "595732e51c132c0c45e55c61",
                         "597ed62e7f90d20459055f3c"
                         ]
           },
           "__v": 0,
           "comments": [
                        {
                        "_id": "5978427ff186447d155dc2a8",
                        "content": "A",
                        "createdBy": {
                        "_id": "595732e31c132c0c45e55c60",
                        "username": "aaa",
                        "__v": 185,
                        "bio": "",
                        "displayName": "Aaa",
                        "gender": "",
                        "profileName": "Aaa",
                        "website": "",
                        "bookMarks": [],
                        "createdAt": "2017-07-01T05:28:03.318Z",
                        "followers": [
                                      "595732e31c132c0c45e55c60",
                                      "597ed62e7f90d20459055f3c",
                                      "595732e51c132c0c45e55c61"
                                      ],
                        "following": [
                                      "595732e51c132c0c45e55c61",
                                      "597ed62e7f90d20459055f3c"
                                      ]
                        },
                        "__v": 0,
                        "createdAt": "2017-07-26T07:19:27.437Z",
                        "likedUsers": [],
                        "isLiked": false,
                        "id": "5978427ff186447d155dc2a8"
                        }
                        ],
           "likedUsers": [],
           "createdAt": "2017-07-26T07:19:27.437Z",
           "multiparts": [
                          "0.9433962264150944_14512641501053567126.png"
                          ],
           "isLiked": false,
           "id": "5978427ff186447d155dc2a7"
           },
           {
           "_id": "597841c3f186447d155dc2a5",
           "createdBy": {
           "_id": "595732e31c132c0c45e55c60",
           "username": "aaa",
           "__v": 185,
           "bio": "",
           "displayName": "Aaa",
           "gender": "",
           "profileName": "Aaa",
           "website": "",
           "bookMarks": [],
           "createdAt": "2017-07-01T05:28:03.318Z",
           "followers": [
                         "595732e31c132c0c45e55c60",
                         "597ed62e7f90d20459055f3c",
                         "595732e51c132c0c45e55c61"
                         ],
           "following": [
                         "595732e51c132c0c45e55c61",
                         "597ed62e7f90d20459055f3c"
                         ]
           },
           "__v": 0,
           "comments": [
                        {
                        "_id": "597841c3f186447d155dc2a6",
                        "content": "B",
                        "createdBy": {
                        "_id": "595732e31c132c0c45e55c60",
                        "username": "aaa",
                        "__v": 185,
                        "bio": "",
                        "displayName": "Aaa",
                        "gender": "",
                        "profileName": "Aaa",
                        "website": "",
                        "bookMarks": [],
                        "createdAt": "2017-07-01T05:28:03.318Z",
                        "followers": [
                                      "595732e31c132c0c45e55c60",
                                      "597ed62e7f90d20459055f3c",
                                      "595732e51c132c0c45e55c61"
                                      ],
                        "following": [
                                      "595732e51c132c0c45e55c61",
                                      "597ed62e7f90d20459055f3c"
                                      ]
                        },
                        "__v": 0,
                        "createdAt": "2017-07-26T07:16:19.865Z",
                        "likedUsers": [],
                        "isLiked": false,
                        "id": "597841c3f186447d155dc2a6"
                        }
                        ],
           "likedUsers": [],
           "createdAt": "2017-07-26T07:16:19.865Z",
           "multiparts": [
                          "1.05875_14321831501053379621.png"
                          ],
           "isLiked": false,
           "id": "597841c3f186447d155dc2a5"
           },
           {
           "_id": "597841bef186447d155dc2a3",
           "createdBy": {
           "_id": "595732e31c132c0c45e55c60",
           "username": "aaa",
           "__v": 185,
           "bio": "",
           "displayName": "Aaa",
           "gender": "",
           "profileName": "Aaa",
           "website": "",
           "bookMarks": [],
           "createdAt": "2017-07-01T05:28:03.318Z",
           "followers": [
                         "595732e31c132c0c45e55c60",
                         "597ed62e7f90d20459055f3c",
                         "595732e51c132c0c45e55c61"
                         ],
           "following": [
                         "595732e51c132c0c45e55c61",
                         "597ed62e7f90d20459055f3c"
                         ]
           },
           "__v": 0,
           "comments": [
                        {
                        "_id": "597841bef186447d155dc2a4",
                        "content": "A",
                        "createdBy": {
                        "_id": "595732e31c132c0c45e55c60",
                        "username": "aaa",
                        "__v": 185,
                        "bio": "",
                        "displayName": "Aaa",
                        "gender": "",
                        "profileName": "Aaa",
                        "website": "",
                        "bookMarks": [],
                        "createdAt": "2017-07-01T05:28:03.318Z",
                        "followers": [
                                      "595732e31c132c0c45e55c60",
                                      "597ed62e7f90d20459055f3c",
                                      "595732e51c132c0c45e55c61"
                                      ],
                        "following": [
                                      "595732e51c132c0c45e55c61",
                                      "597ed62e7f90d20459055f3c"
                                      ]
                        },
                        "__v": 0,
                        "createdAt": "2017-07-26T07:16:14.684Z",
                        "likedUsers": [],
                        "isLiked": false,
                        "id": "597841bef186447d155dc2a4"
                        }
                        ],
           "likedUsers": [],
           "createdAt": "2017-07-26T07:16:14.683Z",
           "multiparts": [
                          "0.9433962264150944_14512641501053374457.png"
                          ],
           "isLiked": false,
           "id": "597841bef186447d155dc2a3"
           },
           {
           "_id": "59784178f186447d155dc2a1",
           "createdBy": {
           "_id": "595732e31c132c0c45e55c60",
           "username": "aaa",
           "__v": 185,
           "bio": "",
           "displayName": "Aaa",
           "gender": "",
           "profileName": "Aaa",
           "website": "",
           "bookMarks": [],
           "createdAt": "2017-07-01T05:28:03.318Z",
           "followers": [
                         "595732e31c132c0c45e55c60",
                         "597ed62e7f90d20459055f3c",
                         "595732e51c132c0c45e55c61"
                         ],
           "following": [
                         "595732e51c132c0c45e55c61",
                         "597ed62e7f90d20459055f3c"
                         ]
           },
           "__v": 0,
           "comments": [
                        {
                        "_id": "59784178f186447d155dc2a2",
                        "content": "B",
                        "createdBy": {
                        "_id": "595732e31c132c0c45e55c60",
                        "username": "aaa",
                        "__v": 185,
                        "bio": "",
                        "displayName": "Aaa",
                        "gender": "",
                        "profileName": "Aaa",
                        "website": "",
                        "bookMarks": [],
                        "createdAt": "2017-07-01T05:28:03.318Z",
                        "followers": [
                                      "595732e31c132c0c45e55c60",
                                      "597ed62e7f90d20459055f3c",
                                      "595732e51c132c0c45e55c61"
                                      ],
                        "following": [
                                      "595732e51c132c0c45e55c61",
                                      "597ed62e7f90d20459055f3c"
                                      ]
                        },
                        "__v": 0,
                        "createdAt": "2017-07-26T07:15:04.309Z",
                        "likedUsers": [],
                        "isLiked": false,
                        "id": "59784178f186447d155dc2a2"
                        }
                        ],
           "likedUsers": [],
           "createdAt": "2017-07-26T07:15:04.309Z",
           "multiparts": [
                          "1.05875_14321831501053304063.png"
                          ],
           "isLiked": false,
           "id": "59784178f186447d155dc2a1"
           },
           {
           "_id": "59784172f186447d155dc29f",
           "createdBy": {
           "_id": "595732e31c132c0c45e55c60",
           "username": "aaa",
           "__v": 185,
           "bio": "",
           "displayName": "Aaa",
           "gender": "",
           "profileName": "Aaa",
           "website": "",
           "bookMarks": [],
           "createdAt": "2017-07-01T05:28:03.318Z",
           "followers": [
                         "595732e31c132c0c45e55c60",
                         "597ed62e7f90d20459055f3c",
                         "595732e51c132c0c45e55c61"
                         ],
           "following": [
                         "595732e51c132c0c45e55c61",
                         "597ed62e7f90d20459055f3c"
                         ]
           },
           "__v": 0,
           "comments": [
                        {
                        "_id": "59784172f186447d155dc2a0",
                        "content": "A",
                        "createdBy": {
                        "_id": "595732e31c132c0c45e55c60",
                        "username": "aaa",
                        "__v": 185,
                        "bio": "",
                        "displayName": "Aaa",
                        "gender": "",
                        "profileName": "Aaa",
                        "website": "",
                        "bookMarks": [],
                        "createdAt": "2017-07-01T05:28:03.318Z",
                        "followers": [
                                      "595732e31c132c0c45e55c60",
                                      "597ed62e7f90d20459055f3c",
                                      "595732e51c132c0c45e55c61"
                                      ],
                        "following": [
                                      "595732e51c132c0c45e55c61",
                                      "597ed62e7f90d20459055f3c"
                                      ]
                        },
                        "__v": 0,
                        "createdAt": "2017-07-26T07:14:58.982Z",
                        "likedUsers": [],
                        "isLiked": false,
                        "id": "59784172f186447d155dc2a0"
                        }
                        ],
           "likedUsers": [],
           "createdAt": "2017-07-26T07:14:58.982Z",
           "multiparts": [
                          "0.9433962264150944_14512641501053298526.png"
                          ],
           "isLiked": false,
           "id": "59784172f186447d155dc29f"
           },
           {
           "_id": "597840c6f186447d155dc29d",
           "createdBy": {
           "_id": "595732e31c132c0c45e55c60",
           "username": "aaa",
           "__v": 185,
           "bio": "",
           "displayName": "Aaa",
           "gender": "",
           "profileName": "Aaa",
           "website": "",
           "bookMarks": [],
           "createdAt": "2017-07-01T05:28:03.318Z",
           "followers": [
                         "595732e31c132c0c45e55c60",
                         "597ed62e7f90d20459055f3c",
                         "595732e51c132c0c45e55c61"
                         ],
           "following": [
                         "595732e51c132c0c45e55c61",
                         "597ed62e7f90d20459055f3c"
                         ]
           },
           "__v": 0,
           "comments": [
                        {
                        "_id": "597840c6f186447d155dc29e",
                        "content": "Kkk",
                        "createdBy": {
                        "_id": "595732e31c132c0c45e55c60",
                        "username": "aaa",
                        "__v": 185,
                        "bio": "",
                        "displayName": "Aaa",
                        "gender": "",
                        "profileName": "Aaa",
                        "website": "",
                        "bookMarks": [],
                        "createdAt": "2017-07-01T05:28:03.318Z",
                        "followers": [
                                      "595732e31c132c0c45e55c60",
                                      "597ed62e7f90d20459055f3c",
                                      "595732e51c132c0c45e55c61"
                                      ],
                        "following": [
                                      "595732e51c132c0c45e55c61",
                                      "597ed62e7f90d20459055f3c"
                                      ]
                        },
                        "__v": 0,
                        "createdAt": "2017-07-26T07:12:06.151Z",
                        "likedUsers": [],
                        "isLiked": false,
                        "id": "597840c6f186447d155dc29e"
                        }
                        ],
           "likedUsers": [],
           "createdAt": "2017-07-26T07:12:06.150Z",
           "multiparts": [
                          "0.9433962264150944_13135051501053125924.png"
                          ],
           "isLiked": false,
           "id": "597840c6f186447d155dc29d"
           },
           {
           "_id": "597840bef186447d155dc29b",
           "createdBy": {
           "_id": "595732e31c132c0c45e55c60",
           "username": "aaa",
           "__v": 185,
           "bio": "",
           "displayName": "Aaa",
           "gender": "",
           "profileName": "Aaa",
           "website": "",
           "bookMarks": [],
           "createdAt": "2017-07-01T05:28:03.318Z",
           "followers": [
                         "595732e31c132c0c45e55c60",
                         "597ed62e7f90d20459055f3c",
                         "595732e51c132c0c45e55c61"
                         ],
           "following": [
                         "595732e51c132c0c45e55c61",
                         "597ed62e7f90d20459055f3c"
                         ]
           },
           "__v": 0,
           "comments": [
                        {
                        "_id": "597840bef186447d155dc29c",
                        "content": "Aaa",
                        "createdBy": {
                        "_id": "595732e31c132c0c45e55c60",
                        "username": "aaa",
                        "__v": 185,
                        "bio": "",
                        "displayName": "Aaa",
                        "gender": "",
                        "profileName": "Aaa",
                        "website": "",
                        "bookMarks": [],
                        "createdAt": "2017-07-01T05:28:03.318Z",
                        "followers": [
                                      "595732e31c132c0c45e55c60",
                                      "597ed62e7f90d20459055f3c",
                                      "595732e51c132c0c45e55c61"
                                      ],
                        "following": [
                                      "595732e51c132c0c45e55c61",
                                      "597ed62e7f90d20459055f3c"
                                      ]
                        },
                        "__v": 0,
                        "createdAt": "2017-07-26T07:11:58.083Z",
                        "likedUsers": [],
                        "isLiked": false,
                        "id": "597840bef186447d155dc29c"
                        }
                        ],
           "likedUsers": [],
           "createdAt": "2017-07-26T07:11:58.083Z",
           "multiparts": [
                          "1.05875_14321831501053117834.png"
                          ],
           "isLiked": false,
           "id": "597840bef186447d155dc29b"
           },
           {
           "_id": "59784059f186447d155dc299",
           "createdBy": {
           "_id": "595732e31c132c0c45e55c60",
           "username": "aaa",
           "__v": 185,
           "bio": "",
           "displayName": "Aaa",
           "gender": "",
           "profileName": "Aaa",
           "website": "",
           "bookMarks": [],
           "createdAt": "2017-07-01T05:28:03.318Z",
           "followers": [
                         "595732e31c132c0c45e55c60",
                         "597ed62e7f90d20459055f3c",
                         "595732e51c132c0c45e55c61"
                         ],
           "following": [
                         "595732e51c132c0c45e55c61",
                         "597ed62e7f90d20459055f3c"
                         ]
           },
           "__v": 0,
           "comments": [
                        {
                        "_id": "59784059f186447d155dc29a",
                        "content": "Bbb",
                        "createdBy": {
                        "_id": "595732e31c132c0c45e55c60",
                        "username": "aaa",
                        "__v": 185,
                        "bio": "",
                        "displayName": "Aaa",
                        "gender": "",
                        "profileName": "Aaa",
                        "website": "",
                        "bookMarks": [],
                        "createdAt": "2017-07-01T05:28:03.318Z",
                        "followers": [
                                      "595732e31c132c0c45e55c60",
                                      "597ed62e7f90d20459055f3c",
                                      "595732e51c132c0c45e55c61"
                                      ],
                        "following": [
                                      "595732e51c132c0c45e55c61",
                                      "597ed62e7f90d20459055f3c"
                                      ]
                        },
                        "__v": 0,
                        "createdAt": "2017-07-26T07:10:17.619Z",
                        "likedUsers": [],
                        "isLiked": false,
                        "id": "59784059f186447d155dc29a"
                        }
                        ],
           "likedUsers": [],
           "createdAt": "2017-07-26T07:10:17.618Z",
           "multiparts": [
                          "1.05875_14321831501053017387.png"
                          ],
           "isLiked": false,
           "id": "59784059f186447d155dc299"
           }
           ],
  "total": 157,
  "limit": 10,
  "page": "2",
  "pages": 16,
  "nextPage": "3"
}
